6A_F|entity_id=60000|parent_id=|entity_name=6A_F|entity_type=Future|domain=Finance|country=|wp3_search=NO|exchange=empty|company_sector=empty|company_industry=|index_component=|DUPLICATE_TICKER=empty
$6A_F|entity_id=60000|parent_id=|entity_name=6A_F|entity_type=Future|domain=Finance|country=|wp3_search=NO|exchange=empty|company_sector=empty|company_industry=|index_component=|DUPLICATE_TICKER=empty
6B_F|entity_id=60001|parent_id=|entity_name=6B_F|entity_type=Future|domain=Finance|country=|wp3_search=NO|exchange=empty|company_sector=empty|company_industry=|index_component=|DUPLICATE_TICKER=empty
$6B_F|entity_id=60001|parent_id=|entity_name=6B_F|entity_type=Future|domain=Finance|country=|wp3_search=NO|exchange=empty|company_sector=empty|company_industry=|index_component=|DUPLICATE_TICKER=empty
6C_F|entity_id=60002|parent_id=|entity_name=6C_F|entity_type=Future|domain=Finance|country=|wp3_search=NO|exchange=empty|company_sector=empty|company_industry=|index_component=|DUPLICATE_TICKER=empty
$6C_F|entity_id=60002|parent_id=|entity_name=6C_F|entity_type=Future|domain=Finance|country=|wp3_search=NO|exchange=empty|company_sector=empty|company_industry=|index_component=|DUPLICATE_TICKER=empty
6E_F|entity_id=60003|parent_id=|entity_name=6E_F|entity_type=Future|domain=Finance|country=|wp3_search=NO|exchange=empty|company_sector=empty|company_industry=|index_component=|DUPLICATE_TICKER=empty
$6E_F|entity_id=60003|parent_id=|entity_name=6E_F|entity_type=Future|domain=Finance|country=|wp3_search=NO|exchange=empty|company_sector=empty|company_industry=|index_component=|DUPLICATE_TICKER=empty
6J_F|entity_id=60004|parent_id=|entity_name=6J_F|entity_type=Future|domain=Finance|country=|wp3_search=NO|exchange=empty|company_sector=empty|company_industry=|index_component=|DUPLICATE_TICKER=empty
$6J_F|entity_id=60004|parent_id=|entity_name=6J_F|entity_type=Future|domain=Finance|country=|wp3_search=NO|exchange=empty|company_sector=empty|company_industry=|index_component=|DUPLICATE_TICKER=empty
6M_F|entity_id=60005|parent_id=|entity_name=6M_F|entity_type=Future|domain=Finance|country=|wp3_search=NO|exchange=empty|company_sector=empty|company_industry=|index_component=|DUPLICATE_TICKER=empty
$6M_F|entity_id=60005|parent_id=|entity_name=6M_F|entity_type=Future|domain=Finance|country=|wp3_search=NO|exchange=empty|company_sector=empty|company_industry=|index_component=|DUPLICATE_TICKER=empty
6N_F|entity_id=60006|parent_id=|entity_name=6N_F|entity_type=Future|domain=Finance|country=|wp3_search=NO|exchange=empty|company_sector=empty|company_industry=|index_component=|DUPLICATE_TICKER=empty
$6N_F|entity_id=60006|parent_id=|entity_name=6N_F|entity_type=Future|domain=Finance|country=|wp3_search=NO|exchange=empty|company_sector=empty|company_industry=|index_component=|DUPLICATE_TICKER=empty
6Q_F|entity_id=60007|parent_id=|entity_name=6Q_F|entity_type=Future|domain=Finance|country=|wp3_search=NO|exchange=empty|company_sector=empty|company_industry=|index_component=|DUPLICATE_TICKER=empty
$6Q_F|entity_id=60007|parent_id=|entity_name=6Q_F|entity_type=Future|domain=Finance|country=|wp3_search=NO|exchange=empty|company_sector=empty|company_industry=|index_component=|DUPLICATE_TICKER=empty
6S_F|entity_id=60008|parent_id=|entity_name=6S_F|entity_type=Future|domain=Finance|country=|wp3_search=NO|exchange=empty|company_sector=empty|company_industry=|index_component=|DUPLICATE_TICKER=empty
$6S_F|entity_id=60008|parent_id=|entity_name=6S_F|entity_type=Future|domain=Finance|country=|wp3_search=NO|exchange=empty|company_sector=empty|company_industry=|index_component=|DUPLICATE_TICKER=empty
8Q_F|entity_id=60009|parent_id=|entity_name=8Q_F|entity_type=Future|domain=Finance|country=|wp3_search=NO|exchange=empty|company_sector=empty|company_industry=|index_component=|DUPLICATE_TICKER=empty
$8Q_F|entity_id=60009|parent_id=|entity_name=8Q_F|entity_type=Future|domain=Finance|country=|wp3_search=NO|exchange=empty|company_sector=empty|company_industry=|index_component=|DUPLICATE_TICKER=empty
AL_F|entity_id=60010|parent_id=|entity_name=AL_F|entity_type=Future|domain=Finance|country=|wp3_search=NO|exchange=empty|company_sector=empty|company_industry=|index_component=|DUPLICATE_TICKER=empty
$AL_F|entity_id=60010|parent_id=|entity_name=AL_F|entity_type=Future|domain=Finance|country=|wp3_search=NO|exchange=empty|company_sector=empty|company_industry=|index_component=|DUPLICATE_TICKER=empty
AW_F|entity_id=60011|parent_id=|entity_name=AW_F|entity_type=Future|domain=Finance|country=|wp3_search=NO|exchange=empty|company_sector=empty|company_industry=|index_component=|DUPLICATE_TICKER=empty
$AW_F|entity_id=60011|parent_id=|entity_name=AW_F|entity_type=Future|domain=Finance|country=|wp3_search=NO|exchange=empty|company_sector=empty|company_industry=|index_component=|DUPLICATE_TICKER=empty
BDI_F|entity_id=60012|parent_id=|entity_name=BDI_F|entity_type=Future|domain=Finance|country=|wp3_search=NO|exchange=empty|company_sector=empty|company_industry=|index_component=|DUPLICATE_TICKER=empty
$BDI_F|entity_id=60012|parent_id=|entity_name=BDI_F|entity_type=Future|domain=Finance|country=|wp3_search=NO|exchange=empty|company_sector=empty|company_industry=|index_component=|DUPLICATE_TICKER=empty
CC_F|entity_id=60013|parent_id=|entity_name=CC_F|entity_type=Future|domain=Finance|country=|wp3_search=NO|exchange=empty|company_sector=empty|company_industry=|index_component=|DUPLICATE_TICKER=empty
$CC_F|entity_id=60013|parent_id=|entity_name=CC_F|entity_type=Future|domain=Finance|country=|wp3_search=NO|exchange=empty|company_sector=empty|company_industry=|index_component=|DUPLICATE_TICKER=empty
CL_F|entity_id=60015|parent_id=|entity_name=CL_F|entity_type=Future|domain=Finance|country=|wp3_search=NO|exchange=empty|company_sector=empty|company_industry=|index_component=|DUPLICATE_TICKER=empty
$CL_F|entity_id=60015|parent_id=|entity_name=CL_F|entity_type=Future|domain=Finance|country=|wp3_search=NO|exchange=empty|company_sector=empty|company_industry=|index_component=|DUPLICATE_TICKER=empty
CR_F|entity_id=60016|parent_id=|entity_name=CR_F|entity_type=Future|domain=Finance|country=|wp3_search=NO|exchange=empty|company_sector=empty|company_industry=|index_component=|DUPLICATE_TICKER=empty
$CR_F|entity_id=60016|parent_id=|entity_name=CR_F|entity_type=Future|domain=Finance|country=|wp3_search=NO|exchange=empty|company_sector=empty|company_industry=|index_component=|DUPLICATE_TICKER=empty
CT_F|entity_id=60017|parent_id=|entity_name=CT_F|entity_type=Future|domain=Finance|country=|wp3_search=NO|exchange=empty|company_sector=empty|company_industry=|index_component=|DUPLICATE_TICKER=empty
$CT_F|entity_id=60017|parent_id=|entity_name=CT_F|entity_type=Future|domain=Finance|country=|wp3_search=NO|exchange=empty|company_sector=empty|company_industry=|index_component=|DUPLICATE_TICKER=empty
CUS_F|entity_id=60018|parent_id=|entity_name=CUS_F|entity_type=Future|domain=Finance|country=|wp3_search=NO|exchange=empty|company_sector=empty|company_industry=|index_component=|DUPLICATE_TICKER=empty
$CUS_F|entity_id=60018|parent_id=|entity_name=CUS_F|entity_type=Future|domain=Finance|country=|wp3_search=NO|exchange=empty|company_sector=empty|company_industry=|index_component=|DUPLICATE_TICKER=empty
DD_F|entity_id=60019|parent_id=|entity_name=DD_F|entity_type=Future|domain=Finance|country=|wp3_search=NO|exchange=empty|company_sector=empty|company_industry=|index_component=|DUPLICATE_TICKER=empty
$DD_F|entity_id=60019|parent_id=|entity_name=DD_F|entity_type=Future|domain=Finance|country=|wp3_search=NO|exchange=empty|company_sector=empty|company_industry=|index_component=|DUPLICATE_TICKER=empty
DJ_F|entity_id=60020|parent_id=|entity_name=DJ_F|entity_type=Future|domain=Finance|country=|wp3_search=NO|exchange=empty|company_sector=empty|company_industry=|index_component=|DUPLICATE_TICKER=empty
$DJ_F|entity_id=60020|parent_id=|entity_name=DJ_F|entity_type=Future|domain=Finance|country=|wp3_search=NO|exchange=empty|company_sector=empty|company_industry=|index_component=|DUPLICATE_TICKER=empty
DX_F|entity_id=60021|parent_id=|entity_name=DX_F|entity_type=Future|domain=Finance|country=|wp3_search=NO|exchange=empty|company_sector=empty|company_industry=|index_component=|DUPLICATE_TICKER=empty
$DX_F|entity_id=60021|parent_id=|entity_name=DX_F|entity_type=Future|domain=Finance|country=|wp3_search=NO|exchange=empty|company_sector=empty|company_industry=|index_component=|DUPLICATE_TICKER=empty
EH_F|entity_id=60022|parent_id=|entity_name=EH_F|entity_type=Future|domain=Finance|country=|wp3_search=NO|exchange=empty|company_sector=empty|company_industry=|index_component=|DUPLICATE_TICKER=empty
$EH_F|entity_id=60022|parent_id=|entity_name=EH_F|entity_type=Future|domain=Finance|country=|wp3_search=NO|exchange=empty|company_sector=empty|company_industry=|index_component=|DUPLICATE_TICKER=empty
EMD_F|entity_id=60023|parent_id=|entity_name=EMD_F|entity_type=Future|domain=Finance|country=|wp3_search=NO|exchange=empty|company_sector=empty|company_industry=|index_component=|DUPLICATE_TICKER=empty
$EMD_F|entity_id=60023|parent_id=|entity_name=EMD_F|entity_type=Future|domain=Finance|country=|wp3_search=NO|exchange=empty|company_sector=empty|company_industry=|index_component=|DUPLICATE_TICKER=empty
EMF_F|entity_id=60024|parent_id=|entity_name=EMF_F|entity_type=Future|domain=Finance|country=|wp3_search=NO|exchange=empty|company_sector=empty|company_industry=|index_component=|DUPLICATE_TICKER=empty
$EMF_F|entity_id=60024|parent_id=|entity_name=EMF_F|entity_type=Future|domain=Finance|country=|wp3_search=NO|exchange=empty|company_sector=empty|company_industry=|index_component=|DUPLICATE_TICKER=empty
ES_F|entity_id=60025|parent_id=|entity_name=ES_F|entity_type=Future|domain=Finance|country=|wp3_search=YES|exchange=empty|company_sector=empty|company_industry=|index_component=|DUPLICATE_TICKER=empty
$ES_F|entity_id=60025|parent_id=|entity_name=ES_F|entity_type=Future|domain=Finance|country=|wp3_search=YES|exchange=empty|company_sector=empty|company_industry=|index_component=|DUPLICATE_TICKER=empty
ND_F|entity_id=60046|parent_id=|entity_name=ND_F|entity_type=Future|domain=Finance|country=|wp3_search=NO|exchange=empty|company_sector=empty|company_industry=|index_component=|DUPLICATE_TICKER=empty
$ND_F|entity_id=60046|parent_id=|entity_name=ND_F|entity_type=Future|domain=Finance|country=|wp3_search=NO|exchange=empty|company_sector=empty|company_industry=|index_component=|DUPLICATE_TICKER=empty
FDAX_F|entity_id=60026|parent_id=|entity_name=FDAX_F|entity_type=Future|domain=Finance|country=|wp3_search=NO|exchange=empty|company_sector=empty|company_industry=|index_component=|DUPLICATE_TICKER=empty
$FDAX_F|entity_id=60026|parent_id=|entity_name=FDAX_F|entity_type=Future|domain=Finance|country=|wp3_search=NO|exchange=empty|company_sector=empty|company_industry=|index_component=|DUPLICATE_TICKER=empty
FESX_F|entity_id=60027|parent_id=|entity_name=FESX_F|entity_type=Future|domain=Finance|country=|wp3_search=NO|exchange=empty|company_sector=empty|company_industry=|index_component=|DUPLICATE_TICKER=empty
$FESX_F|entity_id=60027|parent_id=|entity_name=FESX_F|entity_type=Future|domain=Finance|country=|wp3_search=NO|exchange=empty|company_sector=empty|company_industry=|index_component=|DUPLICATE_TICKER=empty
FXD_F|entity_id=60028|parent_id=|entity_name=FXD_F|entity_type=Future|domain=Finance|country=|wp3_search=NO|exchange=empty|company_sector=empty|company_industry=|index_component=|DUPLICATE_TICKER=empty
$FXD_F|entity_id=60028|parent_id=|entity_name=FXD_F|entity_type=Future|domain=Finance|country=|wp3_search=NO|exchange=empty|company_sector=empty|company_industry=|index_component=|DUPLICATE_TICKER=empty
GC_F|entity_id=60029|parent_id=|entity_name=GC_F|entity_type=Future|domain=Finance|country=|wp3_search=NO|exchange=empty|company_sector=empty|company_industry=|index_component=|DUPLICATE_TICKER=empty
$GC_F|entity_id=60029|parent_id=|entity_name=GC_F|entity_type=Future|domain=Finance|country=|wp3_search=NO|exchange=empty|company_sector=empty|company_industry=|index_component=|DUPLICATE_TICKER=empty
GE_F|entity_id=60030|parent_id=|entity_name=GE_F|entity_type=Future|domain=Finance|country=|wp3_search=NO|exchange=empty|company_sector=empty|company_industry=|index_component=|DUPLICATE_TICKER=empty
$GE_F|entity_id=60030|parent_id=|entity_name=GE_F|entity_type=Future|domain=Finance|country=|wp3_search=NO|exchange=empty|company_sector=empty|company_industry=|index_component=|DUPLICATE_TICKER=empty
GF_F|entity_id=60031|parent_id=|entity_name=GF_F|entity_type=Future|domain=Finance|country=|wp3_search=NO|exchange=empty|company_sector=empty|company_industry=|index_component=|DUPLICATE_TICKER=empty
$GF_F|entity_id=60031|parent_id=|entity_name=GF_F|entity_type=Future|domain=Finance|country=|wp3_search=NO|exchange=empty|company_sector=empty|company_industry=|index_component=|DUPLICATE_TICKER=empty
GLB_F|entity_id=60032|parent_id=|entity_name=GLB_F|entity_type=Future|domain=Finance|country=|wp3_search=NO|exchange=empty|company_sector=empty|company_industry=|index_component=|DUPLICATE_TICKER=empty
$GLB_F|entity_id=60032|parent_id=|entity_name=GLB_F|entity_type=Future|domain=Finance|country=|wp3_search=NO|exchange=empty|company_sector=empty|company_industry=|index_component=|DUPLICATE_TICKER=empty
HE_F|entity_id=60033|parent_id=|entity_name=HE_F|entity_type=Future|domain=Finance|country=|wp3_search=NO|exchange=empty|company_sector=empty|company_industry=|index_component=|DUPLICATE_TICKER=empty
$HE_F|entity_id=60033|parent_id=|entity_name=HE_F|entity_type=Future|domain=Finance|country=|wp3_search=NO|exchange=empty|company_sector=empty|company_industry=|index_component=|DUPLICATE_TICKER=empty
HG_F|entity_id=60034|parent_id=|entity_name=HG_F|entity_type=Future|domain=Finance|country=|wp3_search=NO|exchange=empty|company_sector=empty|company_industry=|index_component=|DUPLICATE_TICKER=empty
$HG_F|entity_id=60034|parent_id=|entity_name=HG_F|entity_type=Future|domain=Finance|country=|wp3_search=NO|exchange=empty|company_sector=empty|company_industry=|index_component=|DUPLICATE_TICKER=empty
HO_F|entity_id=60035|parent_id=|entity_name=HO_F|entity_type=Future|domain=Finance|country=|wp3_search=NO|exchange=empty|company_sector=empty|company_industry=|index_component=|DUPLICATE_TICKER=empty
$HO_F|entity_id=60035|parent_id=|entity_name=HO_F|entity_type=Future|domain=Finance|country=|wp3_search=NO|exchange=empty|company_sector=empty|company_industry=|index_component=|DUPLICATE_TICKER=empty
HR_F|entity_id=60036|parent_id=|entity_name=HR_F|entity_type=Future|domain=Finance|country=|wp3_search=NO|exchange=empty|company_sector=empty|company_industry=|index_component=|DUPLICATE_TICKER=empty
$HR_F|entity_id=60036|parent_id=|entity_name=HR_F|entity_type=Future|domain=Finance|country=|wp3_search=NO|exchange=empty|company_sector=empty|company_industry=|index_component=|DUPLICATE_TICKER=empty
IBV_F|entity_id=60037|parent_id=|entity_name=IBV_F|entity_type=Future|domain=Finance|country=|wp3_search=NO|exchange=empty|company_sector=empty|company_industry=|index_component=|DUPLICATE_TICKER=empty
$IBV_F|entity_id=60037|parent_id=|entity_name=IBV_F|entity_type=Future|domain=Finance|country=|wp3_search=NO|exchange=empty|company_sector=empty|company_industry=|index_component=|DUPLICATE_TICKER=empty
IR_F|entity_id=60038|parent_id=|entity_name=IR_F|entity_type=Future|domain=Finance|country=|wp3_search=NO|exchange=empty|company_sector=empty|company_industry=|index_component=|DUPLICATE_TICKER=empty
$IR_F|entity_id=60038|parent_id=|entity_name=IR_F|entity_type=Future|domain=Finance|country=|wp3_search=NO|exchange=empty|company_sector=empty|company_industry=|index_component=|DUPLICATE_TICKER=empty
KC_F|entity_id=60039|parent_id=|entity_name=KC_F|entity_type=Future|domain=Finance|country=|wp3_search=NO|exchange=empty|company_sector=empty|company_industry=|index_component=|DUPLICATE_TICKER=empty
$KC_F|entity_id=60039|parent_id=|entity_name=KC_F|entity_type=Future|domain=Finance|country=|wp3_search=NO|exchange=empty|company_sector=empty|company_industry=|index_component=|DUPLICATE_TICKER=empty
KE_F|entity_id=60040|parent_id=|entity_name=KE_F|entity_type=Future|domain=Finance|country=|wp3_search=NO|exchange=empty|company_sector=empty|company_industry=|index_component=|DUPLICATE_TICKER=empty
$KE_F|entity_id=60040|parent_id=|entity_name=KE_F|entity_type=Future|domain=Finance|country=|wp3_search=NO|exchange=empty|company_sector=empty|company_industry=|index_component=|DUPLICATE_TICKER=empty
LB_F|entity_id=60041|parent_id=|entity_name=LB_F|entity_type=Future|domain=Finance|country=|wp3_search=NO|exchange=empty|company_sector=empty|company_industry=|index_component=|DUPLICATE_TICKER=empty
$LB_F|entity_id=60041|parent_id=|entity_name=LB_F|entity_type=Future|domain=Finance|country=|wp3_search=NO|exchange=empty|company_sector=empty|company_industry=|index_component=|DUPLICATE_TICKER=empty
LE_F|entity_id=60042|parent_id=|entity_name=LE_F|entity_type=Future|domain=Finance|country=|wp3_search=NO|exchange=empty|company_sector=empty|company_industry=|index_component=|DUPLICATE_TICKER=empty
$LE_F|entity_id=60042|parent_id=|entity_name=LE_F|entity_type=Future|domain=Finance|country=|wp3_search=NO|exchange=empty|company_sector=empty|company_industry=|index_component=|DUPLICATE_TICKER=empty
MGC_F|entity_id=60043|parent_id=|entity_name=MGC_F|entity_type=Future|domain=Finance|country=|wp3_search=NO|exchange=empty|company_sector=empty|company_industry=|index_component=|DUPLICATE_TICKER=empty
$MGC_F|entity_id=60043|parent_id=|entity_name=MGC_F|entity_type=Future|domain=Finance|country=|wp3_search=NO|exchange=empty|company_sector=empty|company_industry=|index_component=|DUPLICATE_TICKER=empty
MW_F|entity_id=60044|parent_id=|entity_name=MW_F|entity_type=Future|domain=Finance|country=|wp3_search=NO|exchange=empty|company_sector=empty|company_industry=|index_component=|DUPLICATE_TICKER=empty
$MW_F|entity_id=60044|parent_id=|entity_name=MW_F|entity_type=Future|domain=Finance|country=|wp3_search=NO|exchange=empty|company_sector=empty|company_industry=|index_component=|DUPLICATE_TICKER=empty
NBZ_F|entity_id=60045|parent_id=|entity_name=NBZ_F|entity_type=Future|domain=Finance|country=|wp3_search=NO|exchange=empty|company_sector=empty|company_industry=|index_component=|DUPLICATE_TICKER=empty
$NBZ_F|entity_id=60045|parent_id=|entity_name=NBZ_F|entity_type=Future|domain=Finance|country=|wp3_search=NO|exchange=empty|company_sector=empty|company_industry=|index_component=|DUPLICATE_TICKER=empty
NG_F|entity_id=60047|parent_id=|entity_name=NG_F|entity_type=Future|domain=Finance|country=|wp3_search=NO|exchange=empty|company_sector=empty|company_industry=|index_component=|DUPLICATE_TICKER=empty
$NG_F|entity_id=60047|parent_id=|entity_name=NG_F|entity_type=Future|domain=Finance|country=|wp3_search=NO|exchange=empty|company_sector=empty|company_industry=|index_component=|DUPLICATE_TICKER=empty
NK_F|entity_id=60048|parent_id=|entity_name=NK_F|entity_type=Future|domain=Finance|country=|wp3_search=NO|exchange=empty|company_sector=empty|company_industry=|index_component=|DUPLICATE_TICKER=empty
$NK_F|entity_id=60048|parent_id=|entity_name=NK_F|entity_type=Future|domain=Finance|country=|wp3_search=NO|exchange=empty|company_sector=empty|company_industry=|index_component=|DUPLICATE_TICKER=empty
NKD_F|entity_id=60049|parent_id=|entity_name=NKD_F|entity_type=Future|domain=Finance|country=|wp3_search=NO|exchange=empty|company_sector=empty|company_industry=|index_component=|DUPLICATE_TICKER=empty
$NKD_F|entity_id=60049|parent_id=|entity_name=NKD_F|entity_type=Future|domain=Finance|country=|wp3_search=NO|exchange=empty|company_sector=empty|company_industry=|index_component=|DUPLICATE_TICKER=empty
NKY_F|entity_id=60050|parent_id=|entity_name=NKY_F|entity_type=Future|domain=Finance|country=|wp3_search=NO|exchange=empty|company_sector=empty|company_industry=|index_component=|DUPLICATE_TICKER=empty
$NKY_F|entity_id=60050|parent_id=|entity_name=NKY_F|entity_type=Future|domain=Finance|country=|wp3_search=NO|exchange=empty|company_sector=empty|company_industry=|index_component=|DUPLICATE_TICKER=empty
NQ_F|entity_id=60051|parent_id=|entity_name=NQ_F|entity_type=Future|domain=Finance|country=|wp3_search=NO|exchange=empty|company_sector=empty|company_industry=|index_component=|DUPLICATE_TICKER=empty
$NQ_F|entity_id=60051|parent_id=|entity_name=NQ_F|entity_type=Future|domain=Finance|country=|wp3_search=NO|exchange=empty|company_sector=empty|company_industry=|index_component=|DUPLICATE_TICKER=empty
OJ_F|entity_id=60052|parent_id=|entity_name=OJ_F|entity_type=Future|domain=Finance|country=|wp3_search=NO|exchange=empty|company_sector=empty|company_industry=|index_component=|DUPLICATE_TICKER=empty
$OJ_F|entity_id=60052|parent_id=|entity_name=OJ_F|entity_type=Future|domain=Finance|country=|wp3_search=NO|exchange=empty|company_sector=empty|company_industry=|index_component=|DUPLICATE_TICKER=empty
OUB_F|entity_id=60053|parent_id=|entity_name=OUB_F|entity_type=Future|domain=Finance|country=|wp3_search=NO|exchange=empty|company_sector=empty|company_industry=|index_component=|DUPLICATE_TICKER=empty
$OUB_F|entity_id=60053|parent_id=|entity_name=OUB_F|entity_type=Future|domain=Finance|country=|wp3_search=NO|exchange=empty|company_sector=empty|company_industry=|index_component=|DUPLICATE_TICKER=empty
PA_F|entity_id=60054|parent_id=|entity_name=PA_F|entity_type=Future|domain=Finance|country=|wp3_search=NO|exchange=empty|company_sector=empty|company_industry=|index_component=|DUPLICATE_TICKER=empty
$PA_F|entity_id=60054|parent_id=|entity_name=PA_F|entity_type=Future|domain=Finance|country=|wp3_search=NO|exchange=empty|company_sector=empty|company_industry=|index_component=|DUPLICATE_TICKER=empty
PB_F|entity_id=60055|parent_id=|entity_name=PB_F|entity_type=Future|domain=Finance|country=|wp3_search=NO|exchange=empty|company_sector=empty|company_industry=|index_component=|DUPLICATE_TICKER=empty
$PB_F|entity_id=60055|parent_id=|entity_name=PB_F|entity_type=Future|domain=Finance|country=|wp3_search=NO|exchange=empty|company_sector=empty|company_industry=|index_component=|DUPLICATE_TICKER=empty
PL_F|entity_id=60056|parent_id=|entity_name=PL_F|entity_type=Future|domain=Finance|country=|wp3_search=NO|exchange=empty|company_sector=empty|company_industry=|index_component=|DUPLICATE_TICKER=empty
$PL_F|entity_id=60056|parent_id=|entity_name=PL_F|entity_type=Future|domain=Finance|country=|wp3_search=NO|exchange=empty|company_sector=empty|company_industry=|index_component=|DUPLICATE_TICKER=empty
PN_F|entity_id=60057|parent_id=|entity_name=PN_F|entity_type=Future|domain=Finance|country=|wp3_search=NO|exchange=empty|company_sector=empty|company_industry=|index_component=|DUPLICATE_TICKER=empty
$PN_F|entity_id=60057|parent_id=|entity_name=PN_F|entity_type=Future|domain=Finance|country=|wp3_search=NO|exchange=empty|company_sector=empty|company_industry=|index_component=|DUPLICATE_TICKER=empty
QC_F|entity_id=60058|parent_id=|entity_name=QC_F|entity_type=Future|domain=Finance|country=|wp3_search=NO|exchange=empty|company_sector=empty|company_industry=|index_component=|DUPLICATE_TICKER=empty
$QC_F|entity_id=60058|parent_id=|entity_name=QC_F|entity_type=Future|domain=Finance|country=|wp3_search=NO|exchange=empty|company_sector=empty|company_industry=|index_component=|DUPLICATE_TICKER=empty
QG_F|entity_id=60059|parent_id=|entity_name=QG_F|entity_type=Future|domain=Finance|country=|wp3_search=NO|exchange=empty|company_sector=empty|company_industry=|index_component=|DUPLICATE_TICKER=empty
$QG_F|entity_id=60059|parent_id=|entity_name=QG_F|entity_type=Future|domain=Finance|country=|wp3_search=NO|exchange=empty|company_sector=empty|company_industry=|index_component=|DUPLICATE_TICKER=empty
QH_F|entity_id=60060|parent_id=|entity_name=QH_F|entity_type=Future|domain=Finance|country=|wp3_search=NO|exchange=empty|company_sector=empty|company_industry=|index_component=|DUPLICATE_TICKER=empty
$QH_F|entity_id=60060|parent_id=|entity_name=QH_F|entity_type=Future|domain=Finance|country=|wp3_search=NO|exchange=empty|company_sector=empty|company_industry=|index_component=|DUPLICATE_TICKER=empty
QI_F|entity_id=60061|parent_id=|entity_name=QI_F|entity_type=Future|domain=Finance|country=|wp3_search=NO|exchange=empty|company_sector=empty|company_industry=|index_component=|DUPLICATE_TICKER=empty
$QI_F|entity_id=60061|parent_id=|entity_name=QI_F|entity_type=Future|domain=Finance|country=|wp3_search=NO|exchange=empty|company_sector=empty|company_industry=|index_component=|DUPLICATE_TICKER=empty
QL_F|entity_id=60062|parent_id=|entity_name=QL_F|entity_type=Future|domain=Finance|country=|wp3_search=NO|exchange=empty|company_sector=empty|company_industry=|index_component=|DUPLICATE_TICKER=empty
$QL_F|entity_id=60062|parent_id=|entity_name=QL_F|entity_type=Future|domain=Finance|country=|wp3_search=NO|exchange=empty|company_sector=empty|company_industry=|index_component=|DUPLICATE_TICKER=empty
QM_F|entity_id=60063|parent_id=|entity_name=QM_F|entity_type=Future|domain=Finance|country=|wp3_search=NO|exchange=empty|company_sector=empty|company_industry=|index_component=|DUPLICATE_TICKER=empty
$QM_F|entity_id=60063|parent_id=|entity_name=QM_F|entity_type=Future|domain=Finance|country=|wp3_search=NO|exchange=empty|company_sector=empty|company_industry=|index_component=|DUPLICATE_TICKER=empty
QO_F|entity_id=60064|parent_id=|entity_name=QO_F|entity_type=Future|domain=Finance|country=|wp3_search=NO|exchange=empty|company_sector=empty|company_industry=|index_component=|DUPLICATE_TICKER=empty
$QO_F|entity_id=60064|parent_id=|entity_name=QO_F|entity_type=Future|domain=Finance|country=|wp3_search=NO|exchange=empty|company_sector=empty|company_industry=|index_component=|DUPLICATE_TICKER=empty
QU_F|entity_id=60065|parent_id=|entity_name=QU_F|entity_type=Future|domain=Finance|country=|wp3_search=NO|exchange=empty|company_sector=empty|company_industry=|index_component=|DUPLICATE_TICKER=empty
$QU_F|entity_id=60065|parent_id=|entity_name=QU_F|entity_type=Future|domain=Finance|country=|wp3_search=NO|exchange=empty|company_sector=empty|company_industry=|index_component=|DUPLICATE_TICKER=empty
RB_F|entity_id=60066|parent_id=|entity_name=RB_F|entity_type=Future|domain=Finance|country=|wp3_search=NO|exchange=empty|company_sector=empty|company_industry=|index_component=|DUPLICATE_TICKER=empty
$RB_F|entity_id=60066|parent_id=|entity_name=RB_F|entity_type=Future|domain=Finance|country=|wp3_search=NO|exchange=empty|company_sector=empty|company_industry=|index_component=|DUPLICATE_TICKER=empty
RG_F|entity_id=60067|parent_id=|entity_name=RG_F|entity_type=Future|domain=Finance|country=|wp3_search=NO|exchange=empty|company_sector=empty|company_industry=|index_component=|DUPLICATE_TICKER=empty
$RG_F|entity_id=60067|parent_id=|entity_name=RG_F|entity_type=Future|domain=Finance|country=|wp3_search=NO|exchange=empty|company_sector=empty|company_industry=|index_component=|DUPLICATE_TICKER=empty
RS_F|entity_id=60068|parent_id=|entity_name=RS_F|entity_type=Future|domain=Finance|country=|wp3_search=NO|exchange=empty|company_sector=empty|company_industry=|index_component=|DUPLICATE_TICKER=empty
$RS_F|entity_id=60068|parent_id=|entity_name=RS_F|entity_type=Future|domain=Finance|country=|wp3_search=NO|exchange=empty|company_sector=empty|company_industry=|index_component=|DUPLICATE_TICKER=empty
RTY_F|entity_id=60069|parent_id=|entity_name=RTY_F|entity_type=Future|domain=Finance|country=|wp3_search=NO|exchange=empty|company_sector=empty|company_industry=|index_component=|DUPLICATE_TICKER=empty
$RTY_F|entity_id=60069|parent_id=|entity_name=RTY_F|entity_type=Future|domain=Finance|country=|wp3_search=NO|exchange=empty|company_sector=empty|company_industry=|index_component=|DUPLICATE_TICKER=empty
RV_F|entity_id=60070|parent_id=|entity_name=RV_F|entity_type=Future|domain=Finance|country=|wp3_search=NO|exchange=empty|company_sector=empty|company_industry=|index_component=|DUPLICATE_TICKER=empty
$RV_F|entity_id=60070|parent_id=|entity_name=RV_F|entity_type=Future|domain=Finance|country=|wp3_search=NO|exchange=empty|company_sector=empty|company_industry=|index_component=|DUPLICATE_TICKER=empty
SA_F|entity_id=60071|parent_id=|entity_name=SA_F|entity_type=Future|domain=Finance|country=|wp3_search=NO|exchange=empty|company_sector=empty|company_industry=|index_component=|DUPLICATE_TICKER=empty
$SA_F|entity_id=60071|parent_id=|entity_name=SA_F|entity_type=Future|domain=Finance|country=|wp3_search=NO|exchange=empty|company_sector=empty|company_industry=|index_component=|DUPLICATE_TICKER=empty
SB_F|entity_id=60072|parent_id=|entity_name=SB_F|entity_type=Future|domain=Finance|country=|wp3_search=NO|exchange=empty|company_sector=empty|company_industry=|index_component=|DUPLICATE_TICKER=empty
$SB_F|entity_id=60072|parent_id=|entity_name=SB_F|entity_type=Future|domain=Finance|country=|wp3_search=NO|exchange=empty|company_sector=empty|company_industry=|index_component=|DUPLICATE_TICKER=empty
SI_F|entity_id=60073|parent_id=|entity_name=SI_F|entity_type=Future|domain=Finance|country=|wp3_search=NO|exchange=empty|company_sector=empty|company_industry=|index_component=|DUPLICATE_TICKER=empty
$SI_F|entity_id=60073|parent_id=|entity_name=SI_F|entity_type=Future|domain=Finance|country=|wp3_search=NO|exchange=empty|company_sector=empty|company_industry=|index_component=|DUPLICATE_TICKER=empty
SMC_F|entity_id=60074|parent_id=|entity_name=SMC_F|entity_type=Future|domain=Finance|country=|wp3_search=NO|exchange=empty|company_sector=empty|company_industry=|index_component=|DUPLICATE_TICKER=empty
$SMC_F|entity_id=60074|parent_id=|entity_name=SMC_F|entity_type=Future|domain=Finance|country=|wp3_search=NO|exchange=empty|company_sector=empty|company_industry=|index_component=|DUPLICATE_TICKER=empty
SP_F|entity_id=60075|parent_id=|entity_name=SP_F|entity_type=Future|domain=Finance|country=|wp3_search=YES|exchange=empty|company_sector=empty|company_industry=|index_component=|DUPLICATE_TICKER=empty
$SP_F|entity_id=60075|parent_id=|entity_name=SP_F|entity_type=Future|domain=Finance|country=|wp3_search=YES|exchange=empty|company_sector=empty|company_industry=|index_component=|DUPLICATE_TICKER=empty
SR_F|entity_id=60076|parent_id=|entity_name=SR_F|entity_type=Future|domain=Finance|country=|wp3_search=NO|exchange=empty|company_sector=empty|company_industry=|index_component=|DUPLICATE_TICKER=empty
$SR_F|entity_id=60076|parent_id=|entity_name=SR_F|entity_type=Future|domain=Finance|country=|wp3_search=NO|exchange=empty|company_sector=empty|company_industry=|index_component=|DUPLICATE_TICKER=empty
TF_F|entity_id=60077|parent_id=|entity_name=TF_F|entity_type=Future|domain=Finance|country=|wp3_search=NO|exchange=empty|company_sector=empty|company_industry=|index_component=|DUPLICATE_TICKER=empty
$TF_F|entity_id=60077|parent_id=|entity_name=TF_F|entity_type=Future|domain=Finance|country=|wp3_search=NO|exchange=empty|company_sector=empty|company_industry=|index_component=|DUPLICATE_TICKER=empty
USS_F|entity_id=60079|parent_id=|entity_name=USS_F|entity_type=Future|domain=Finance|country=|wp3_search=NO|exchange=empty|company_sector=empty|company_industry=|index_component=|DUPLICATE_TICKER=empty
$USS_F|entity_id=60079|parent_id=|entity_name=USS_F|entity_type=Future|domain=Finance|country=|wp3_search=NO|exchange=empty|company_sector=empty|company_industry=|index_component=|DUPLICATE_TICKER=empty
UX_F|entity_id=60080|parent_id=|entity_name=UX_F|entity_type=Future|domain=Finance|country=|wp3_search=NO|exchange=empty|company_sector=empty|company_industry=|index_component=|DUPLICATE_TICKER=empty
$UX_F|entity_id=60080|parent_id=|entity_name=UX_F|entity_type=Future|domain=Finance|country=|wp3_search=NO|exchange=empty|company_sector=empty|company_industry=|index_component=|DUPLICATE_TICKER=empty
VX_F|entity_id=60081|parent_id=|entity_name=VX_F|entity_type=Future|domain=Finance|country=|wp3_search=NO|exchange=empty|company_sector=empty|company_industry=|index_component=|DUPLICATE_TICKER=empty
$VX_F|entity_id=60081|parent_id=|entity_name=VX_F|entity_type=Future|domain=Finance|country=|wp3_search=NO|exchange=empty|company_sector=empty|company_industry=|index_component=|DUPLICATE_TICKER=empty
YC_F|entity_id=60082|parent_id=|entity_name=YC_F|entity_type=Future|domain=Finance|country=|wp3_search=NO|exchange=empty|company_sector=empty|company_industry=|index_component=|DUPLICATE_TICKER=empty
$YC_F|entity_id=60082|parent_id=|entity_name=YC_F|entity_type=Future|domain=Finance|country=|wp3_search=NO|exchange=empty|company_sector=empty|company_industry=|index_component=|DUPLICATE_TICKER=empty
YG_F|entity_id=60083|parent_id=|entity_name=YG_F|entity_type=Future|domain=Finance|country=|wp3_search=NO|exchange=empty|company_sector=empty|company_industry=|index_component=|DUPLICATE_TICKER=empty
$YG_F|entity_id=60083|parent_id=|entity_name=YG_F|entity_type=Future|domain=Finance|country=|wp3_search=NO|exchange=empty|company_sector=empty|company_industry=|index_component=|DUPLICATE_TICKER=empty
YI_F|entity_id=60084|parent_id=|entity_name=YI_F|entity_type=Future|domain=Finance|country=|wp3_search=NO|exchange=empty|company_sector=empty|company_industry=|index_component=|DUPLICATE_TICKER=empty
$YI_F|entity_id=60084|parent_id=|entity_name=YI_F|entity_type=Future|domain=Finance|country=|wp3_search=NO|exchange=empty|company_sector=empty|company_industry=|index_component=|DUPLICATE_TICKER=empty
YK_F|entity_id=60085|parent_id=|entity_name=YK_F|entity_type=Future|domain=Finance|country=|wp3_search=NO|exchange=empty|company_sector=empty|company_industry=|index_component=|DUPLICATE_TICKER=empty
$YK_F|entity_id=60085|parent_id=|entity_name=YK_F|entity_type=Future|domain=Finance|country=|wp3_search=NO|exchange=empty|company_sector=empty|company_industry=|index_component=|DUPLICATE_TICKER=empty
YM_F|entity_id=60086|parent_id=|entity_name=YM_F|entity_type=Future|domain=Finance|country=|wp3_search=NO|exchange=empty|company_sector=empty|company_industry=|index_component=|DUPLICATE_TICKER=empty
$YM_F|entity_id=60086|parent_id=|entity_name=YM_F|entity_type=Future|domain=Finance|country=|wp3_search=NO|exchange=empty|company_sector=empty|company_industry=|index_component=|DUPLICATE_TICKER=empty
YW_F|entity_id=60087|parent_id=|entity_name=YW_F|entity_type=Future|domain=Finance|country=|wp3_search=NO|exchange=empty|company_sector=empty|company_industry=|index_component=|DUPLICATE_TICKER=empty
$YW_F|entity_id=60087|parent_id=|entity_name=YW_F|entity_type=Future|domain=Finance|country=|wp3_search=NO|exchange=empty|company_sector=empty|company_industry=|index_component=|DUPLICATE_TICKER=empty
ZB_F|entity_id=60088|parent_id=|entity_name=ZB_F|entity_type=Future|domain=Finance|country=|wp3_search=NO|exchange=empty|company_sector=empty|company_industry=|index_component=|DUPLICATE_TICKER=empty
$ZB_F|entity_id=60088|parent_id=|entity_name=ZB_F|entity_type=Future|domain=Finance|country=|wp3_search=NO|exchange=empty|company_sector=empty|company_industry=|index_component=|DUPLICATE_TICKER=empty
ZC_F|entity_id=60089|parent_id=|entity_name=ZC_F|entity_type=Future|domain=Finance|country=|wp3_search=NO|exchange=empty|company_sector=empty|company_industry=|index_component=|DUPLICATE_TICKER=empty
$ZC_F|entity_id=60089|parent_id=|entity_name=ZC_F|entity_type=Future|domain=Finance|country=|wp3_search=NO|exchange=empty|company_sector=empty|company_industry=|index_component=|DUPLICATE_TICKER=empty
ZD_F|entity_id=60090|parent_id=|entity_name=ZD_F|entity_type=Future|domain=Finance|country=|wp3_search=NO|exchange=empty|company_sector=empty|company_industry=|index_component=|DUPLICATE_TICKER=empty
$ZD_F|entity_id=60090|parent_id=|entity_name=ZD_F|entity_type=Future|domain=Finance|country=|wp3_search=NO|exchange=empty|company_sector=empty|company_industry=|index_component=|DUPLICATE_TICKER=empty
ZE_F|entity_id=60091|parent_id=|entity_name=ZE_F|entity_type=Future|domain=Finance|country=|wp3_search=NO|exchange=empty|company_sector=empty|company_industry=|index_component=|DUPLICATE_TICKER=empty
$ZE_F|entity_id=60091|parent_id=|entity_name=ZE_F|entity_type=Future|domain=Finance|country=|wp3_search=NO|exchange=empty|company_sector=empty|company_industry=|index_component=|DUPLICATE_TICKER=empty
ZF_F|entity_id=60092|parent_id=|entity_name=ZF_F|entity_type=Future|domain=Finance|country=|wp3_search=NO|exchange=empty|company_sector=empty|company_industry=|index_component=|DUPLICATE_TICKER=empty
$ZF_F|entity_id=60092|parent_id=|entity_name=ZF_F|entity_type=Future|domain=Finance|country=|wp3_search=NO|exchange=empty|company_sector=empty|company_industry=|index_component=|DUPLICATE_TICKER=empty
ZL_F|entity_id=60093|parent_id=|entity_name=ZL_F|entity_type=Future|domain=Finance|country=|wp3_search=NO|exchange=empty|company_sector=empty|company_industry=|index_component=|DUPLICATE_TICKER=empty
$ZL_F|entity_id=60093|parent_id=|entity_name=ZL_F|entity_type=Future|domain=Finance|country=|wp3_search=NO|exchange=empty|company_sector=empty|company_industry=|index_component=|DUPLICATE_TICKER=empty
ZM_F|entity_id=60094|parent_id=|entity_name=ZM_F|entity_type=Future|domain=Finance|country=|wp3_search=NO|exchange=empty|company_sector=empty|company_industry=|index_component=|DUPLICATE_TICKER=empty
$ZM_F|entity_id=60094|parent_id=|entity_name=ZM_F|entity_type=Future|domain=Finance|country=|wp3_search=NO|exchange=empty|company_sector=empty|company_industry=|index_component=|DUPLICATE_TICKER=empty
ZN_F|entity_id=60095|parent_id=|entity_name=ZN_F|entity_type=Future|domain=Finance|country=|wp3_search=NO|exchange=empty|company_sector=empty|company_industry=|index_component=|DUPLICATE_TICKER=empty
$ZN_F|entity_id=60095|parent_id=|entity_name=ZN_F|entity_type=Future|domain=Finance|country=|wp3_search=NO|exchange=empty|company_sector=empty|company_industry=|index_component=|DUPLICATE_TICKER=empty
ZO_F|entity_id=60096|parent_id=|entity_name=ZO_F|entity_type=Future|domain=Finance|country=|wp3_search=NO|exchange=empty|company_sector=empty|company_industry=|index_component=|DUPLICATE_TICKER=empty
$ZO_F|entity_id=60096|parent_id=|entity_name=ZO_F|entity_type=Future|domain=Finance|country=|wp3_search=NO|exchange=empty|company_sector=empty|company_industry=|index_component=|DUPLICATE_TICKER=empty
ZQ_F|entity_id=60097|parent_id=|entity_name=ZQ_F|entity_type=Future|domain=Finance|country=|wp3_search=NO|exchange=empty|company_sector=empty|company_industry=|index_component=|DUPLICATE_TICKER=empty
$ZQ_F|entity_id=60097|parent_id=|entity_name=ZQ_F|entity_type=Future|domain=Finance|country=|wp3_search=NO|exchange=empty|company_sector=empty|company_industry=|index_component=|DUPLICATE_TICKER=empty
ZR_F|entity_id=60098|parent_id=|entity_name=ZR_F|entity_type=Future|domain=Finance|country=|wp3_search=NO|exchange=empty|company_sector=empty|company_industry=|index_component=|DUPLICATE_TICKER=empty
$ZR_F|entity_id=60098|parent_id=|entity_name=ZR_F|entity_type=Future|domain=Finance|country=|wp3_search=NO|exchange=empty|company_sector=empty|company_industry=|index_component=|DUPLICATE_TICKER=empty
ZS_F|entity_id=60099|parent_id=|entity_name=ZS_F|entity_type=Future|domain=Finance|country=|wp3_search=NO|exchange=empty|company_sector=empty|company_industry=|index_component=|DUPLICATE_TICKER=empty
$ZS_F|entity_id=60099|parent_id=|entity_name=ZS_F|entity_type=Future|domain=Finance|country=|wp3_search=NO|exchange=empty|company_sector=empty|company_industry=|index_component=|DUPLICATE_TICKER=empty
ZT_F|entity_id=60100|parent_id=|entity_name=ZT_F|entity_type=Future|domain=Finance|country=|wp3_search=NO|exchange=empty|company_sector=empty|company_industry=|index_component=|DUPLICATE_TICKER=empty
$ZT_F|entity_id=60100|parent_id=|entity_name=ZT_F|entity_type=Future|domain=Finance|country=|wp3_search=NO|exchange=empty|company_sector=empty|company_industry=|index_component=|DUPLICATE_TICKER=empty
ZW_F|entity_id=60101|parent_id=|entity_name=ZW_F|entity_type=Future|domain=Finance|country=|wp3_search=NO|exchange=empty|company_sector=empty|company_industry=|index_component=|DUPLICATE_TICKER=empty
$ZW_F|entity_id=60101|parent_id=|entity_name=ZW_F|entity_type=Future|domain=Finance|country=|wp3_search=NO|exchange=empty|company_sector=empty|company_industry=|index_component=|DUPLICATE_TICKER=empty
