#AB2|Product=AngryBirds|Company=Rovio Entertainment
@ABepic|Product=AngryBirds|Company=Rovio Entertainment
ACCELERATING THE WAY THE WORLD COMMUNICATES|Product=ACCELERATING THE WAY THE WORLD COMMUNICATES|Company=SDL
#ActiveDirectory|Product=MS Active Directory|Company=Microsoft
ADPT|Product=ADPT|Company=Bestseller
Adsense|Product=Adsense|Company=Google
#AdWords|Product=AdWords|Company=Google
AirDrop|Product=AirDrop|Company=Apple
Albani|Product=Albani|Company=Royal Unibrew
Alexa|Product=Alexa|Company=Amazon
#Allo|Product=Allo|Company=Google
Allo|Product=Allo|Company=Google
@AmazonHelp|Product=Amazon Help|Company=Amazon
@amazonindia|Product=Amazon India|Company=Amazon
@amazonIN|Product=Amazon IN|Company=Amazon
@AmazonKindle|Product=Kindle|Company=Amazon
@amazonmusic|Product=Amazon Music|Company=Amazon
@amazonsmile|Product=Amazon Smile|Company=Amazon
@AmazonVideo|Product=Amazon Video|Company=Amazon
Ampla|Product=Ampla|Company=Citec
#AndroidAuto|Product=Android|Company=Google
#AndroidN|Product=Android|Company=Google
@Android|Product=Android|Company=Google
#Android|Product=Android|Company=Google
Android|Product=Android|Company=Google
@Androids|Product=Android|Company=Google
#AngryBirds2|Product=AngryBirds|Company=Rovio Entertainment
@AngryBirdsFight|Product=AngryBirds|Company=Rovio Entertainment
#AngryBirdsMovie|Product=Angry Birds Movie|Company=Rovio Entertainment
@AngryBirds|Product=AngryBirds|Company=Rovio Entertainment
#AngryBirds|Product=AngryBirds|Company=Rovio Entertainment
Angry Birds|Product=AngryBirds|Company=Rovio Entertainment
Angry Birds Seasons|Product=Angry Birds Seasons|Company=Rovio Entertainment
Angry Birds Series|Product=AngryBirds|Company=Rovio Entertainment
Angry Birds Toons|Product=Angry Birds Toons|Company=Rovio Entertainment
Apple family|Product=Apple family|Company=Apple
Apple fraternity|Product=Apple fraternity|Company=Apple
@_AppleHotNews|Product=Apple News|Company=Apple
@appleinsider|Product=appleinsider|Company=Apple
@AppleMusic|Product=Apple Music|Company=Apple
Apple Music|Product=Apple Music|Company=Apple
Apple Music- ver 9.2.1|Product=Apple Music|Company=Apple
@AppleNews|Product=Apple News|Company=Apple
@applenws|Product=Apple News|Company=Apple
Apple Pay|Product=Apple Pay|Company=Apple
@Apple Store|Product=Apple Store|Company=Apple
AppleStore|Product=Apple Store|Company=Apple
#applestores|Product=Apple Store|Company=Apple
Apple Stores|Product=Apple Store|Company=Apple
@AppleSupport|Product=Apple Support|Company=Apple
AppleTV app|Product=Apple TV|Company=Apple
Apple TV|Product=Apple TV|Company=Apple
@Apple Watch|Product=Apple Watch|Company=Apple
Apple Watch|Product=Apple Watch|Company=Apple
@AppStoreGames|Product=Apple AppStore|Company=Apple
@AppStore|Product=Apple AppStore|Company=Apple
AppStore|Product=Apple AppStore|Company=Apple
#App-V|Product=MS App-V|Company=Microsoft
Amazon Prime|Product=Amazon Prime|Company=Amazon
Askville|Product=Askville|Company=Amazon
Audible|Product=Amazon Audible|Company=Amazon
AUTHORASSISTANT|Product=SDL Authorassistant|Company=SDL
AWS|Product=AWS|Company=Amazon
@AzureMktPlace|Product=AzureMktPlace|Company=Microsoft
Azure|Product=MS Azure|Company=Microsoft
Baidu 500|Product=Baidu 500|Company=Baidu
Baidu's Duer|Product=Baidu's Duer|Company=Baidu
Baidu Yi|Product=Baidu Yi|Company=Baidu
Baidu Zhanzhang|Product=Baidu Zhanzhang|Company=Baidu
Baltika|Product=Baltika|Company=Carlsberg
BEGLOBAL|Product=SDL Beglobal|Company=SDL
Bing Maps|Product=Bing|Company=Microsoft
Bing|Product=Bing|Company=Microsoft
@Blockchain|Product=Blockchain|Company=IBM
BLUEPRINTING|Product=SDL Blueprinting|Company=SDL
Cardboard|Product=Cardboard|Company=Google
#Carlsbergensis|Product=Carlsberg|Company=Carlsberg
Carlsberg Lager|Product=Carlsberg|Company=Carlsberg
Carlsberg Light|Product=Carlsberg|Company=Carlsberg
Ceres|Product=Ceres|Company=Royal Unibrew
Chrome|Product=Google Chrome|Company=Google
Citect Facilities|Product=Citect|Company=Citec
CitectHistorian|Product=Citect|Company=Citec
comiXology|Product=comiXology|Company=Amazon
Connected Field Service|Product=Connected Field Service|Company=Microsoft
CONTENTA|Product=SDL Contenta|Company=SDL
CoreValue|Product=CoreValue|Company=Citec
Cortana|Product=Cortana|Company=Microsoft
COSIMA Enterprise|Product=COSIMA Enterprise|Company=CBG
COSIMA Go!|Product=COSIMA Go!|Company=CBG
CP200d|Product=CP200d|Company=Motorola
CS2|Product=Lingsoft CS|Company=Lingsoft
CS3|Product=Lingsoft CS|Company=Lingsoft
CS4|Product=Lingsoft CS|Company=Lingsoft
CS5.5|Product=Lingsoft CS|Company=Lingsoft
CS5|Product=Lingsoft CS|Company=Lingsoft
CS6|Product=Lingsoft CS|Company=Lingsoft
#Daydream Platform|Product=Google Daydream|Company=Google
Daydream|Product=Google Daydream|Company=Google
@DeveloperWorks|Product=DeveloperWorks|Company=IBM
#DevOps|Product=IBM DevOps|Company=IBM
#Dressmann|Product=Dressmann|Company=Varner Gruppen
Dressmann|Product=Dressmann|Company=Varner Gruppen
Duo|Product=Google Duo|Company=Google
Dynamics|Product=Microsoft Dynamics|Company=Microsoft
Echo|Product=Amazon Echo|Company=Amazon
#EClass|Product=Mercedes Eclass|Company=Mercedes Benz
E-Class|Product=Mercedes Eclass|Company=Mercedes Benz
El Capitan|Product=El Capitan|Company=Apple
Elevators|Product=Kone Elevators|Company=Kone
#Enterprise|Product=Microsoft Enterprise|Company=Microsoft
Enterprise|Product=Microsoft Enterprise|Company=Microsoft
#Enterprise #Server|Product=Microsoft Enterprise|Company=Microsoft
#EPM|Product=Microsoft Enterprise|Company=Microsoft
Excel|Product=Excel|Company=Microsoft
#Exchange|Product=Microsoft Exchange|Company=Microsoft
#Exchange #Server|Product=Microsoft Exchange|Company=Microsoft
Eyefluence|Product=Eyefluence|Company=Motorola
F8|Product=F8|Company=Facebook
Faxe|Product=Faxe|Company=Royal Unibrew
FbStart|Product=FbStart|Company=Facebook
Fire 7|Product=Amazon Fire|Company=Amazon
Fire|Product=Amazon Fire|Company=Amazon
FireTV|Product=Amazon FireTV|Company=Amazon
@FitFluential|Product=FitFluential|Company=Polar Electro
Flight Search|Product=Google Flight Search|Company=Google
Flow|Product=Polar Flow|Company=Polar Electro
Galaxy Nexus|Product=Google Galaxy|Company=Google
GalaxyNexus|Product=Google Galaxy|Company=Google
Galaxy|Product=Google Galaxy|Company=Google
GameStudios|Product=GameStudios|Company=Amazon
#gboard|Product=GBoard|Company=Google
GBoard|Product=GBoard|Company=Google
Gimlet LMS|Product=Gimlet|Company=Prewise
GLOBAL AUTHORING MANAGEMENT SYSTEM|Product=SDL Global Authoring Management System|Company=SDL
GLOBALCONNECT|Product=SDL Global Connect|Company=SDL
GlobalLink Connect|Product=GlobalLink Connect|Company=Translations.com
GlobalLink Enterprise|Product=GlobalLink Enterprise|Company=Translations.com
GlobalLink Modules|Product=GlobalLink Modules|Company=Translations.com
GlobalLink OneLink|Product=GlobalLink OneLink|Company=Translations.com
GlobalLink Pro|Product=GlobalLink Pro|Company=Translations.com
GlobalSight|Product=GlobalSight|Company=Welocalize
Gmail|Product=Gmail|Company=Google
Google Alerts|Product=Google Alerts|Company=Google
Google Books|Product=Google Books|Company=Google
Google Custom Search|Product=Google Custom Search|Company=Google
@googledevs|Product=googledevs|Company=Google
Google Docs|Product=Google Docs|Company=Google
@Google Drive|Product=Google Drive|Company=Google
Google eBook|Product=Google eBook|Company=Google
Google Flight Search|Product=Google Flight Search|Company=Google
@Google Forms|Product=Google Forms|Company=Google
Google Groups|Product=Google Groups|Company=Google
#GoogleHome|Product=Google Home|Company=Google
Google Hotel Finder|Product=Google Hotel Finder|Company=Google
Google Image Search|Product=Google Image Search|Company=Google
Google Maps|Product=Google Maps|Company=Google
Google News|Product=Google News|Company=Google
@Googlenexus|Product=Nexus|Company=Google
Google Patent Search|Product=Google Patent Search|Company=Google
@GooglePlay|Product=GooglePlay|Company=Google
Googleplus|Product=Google+|Company=Google
@Googlepolitics|Product=Googlepolitics|Company=Google
#Google+|Product=Google+|Company=Google
Google+|Product=Google+|Company=Google
Google Recipe View|Product=Google Recipe View|Company=Google
Google Scholar|Product=Google Scholar|Company=Google
@Google Search|Product=Google Search|Company=Google
Google Search|Product=Google Search|Company=Google
Google Shopping|Product=Google Shopping|Company=Google
#GoogleSpaces|Product=Google Spaces|Company=Google
Google Spaces|Product=Google Spaces|Company=Google
Google Video|Product=Google Video|Company=Google
Google Work|Product=Google Work|Company=Google
Googlr Finance|Product=Googlr Finance|Company=Google
#GP2016|Product=Microsoft Dynamics|Company=Microsoft
#GPUGAmplify|Product=GPUGAmplify|Company=Microsoft
Grimbergen|Product=Grimbergen|Company=Carlsberg
Hadoop|Product=Hadoop|Company=Microsoft
Halo 4|Product=Halo|Company=Microsoft
Halo 5|Product=Halo|Company=Microsoft
#HANACloudPlatform|Product=HANACloudPlatform|Company=Microsoft
#HANA|Product=HANACloudPlatform|Company=Microsoft
hao123.com|Product=Hao123|Company=Baidu
Hao123|Product=Hao123|Company=Baidu
Here & Now|Product=Facebook Here & Now|Company=Facebook
@HoloLensDevs|Product=HoloLens|Company=Microsoft
hololens|Product=HoloLens|Company=Microsoft
@HoloLens|Product=HoloLens|Company=Microsoft
#HoloLens|Product=HoloLens|Company=Microsoft
i4s|Product=i4s|Company=Apple
#IaaS|Product=IaaS|Company=Microsoft
@IBMBluemix|Product=IBMBluemix|Company=IBM
@IBMCloud|Product=IBMCloud|Company=IBM
iBooks|Product=iBooks|Company=Apple
Ice Cream Sandwich 4.0|Product=Android IceCream Sandwich|Company=Google
IceCreamSandwich 4.0|Product=Android IceCream Sandwich|Company=Google
Ice Cream Sandwich|Product=Android IceCream Sandwich|Company=Google
Ice-Cream Sandwich|Product=Android IceCream Sandwich|Company=Google
IceCreamSandwich|Product=Android IceCream Sandwich|Company=Google
iCloud|Product=iCloud|Company=Apple
IDIOM|Product=SDL Idiom|Company=SDL
#Ignite|Product=Microsoft Ignite|Company=Microsoft
iLife|Product=iLife|Company=Apple
iMac|Product=iMac|Company=Apple
iMessage|Product=iMessage|Company=Apple
iMovie|Product=iMovie|Company=Apple
Infinite Digital Bookcase|Product=Infinite Digital Bookcase|Company=Google
Infinite Digital Bookcase RT|Product=Infinite Digital Bookcase|Company=Google
@Inhabitat|Product=Inhabitat|Company=Apple
InSight|Product=InSight|Company=Welocalize
InstantVideoGerman|Product=InstantVideoGerman|Company=Amazon
InstantVideoUK|Product=InstantVideoUK|Company=Amazon
IOC|Product=IBM IOC|Company=IBM
iOS 9.3.2|Product=iOS|Company=Apple
iOS9.3.2|Product=iOS|Company=Apple
iOS 9.3.3|Product=iOS|Company=Apple
iOS|Product=iOS|Company=Apple
iPad Pro 9.7|Product=iPad|Company=Apple
iPad|Product=iPad|Company=Apple
#iPadPro|Product=iPad|Company=Apple
iPad Pro|Product=iPad|Company=Apple
iPads|Product=iPad|Company=Apple
iPhone 5|Product=iPhone|Company=Apple
iPhone 6|Product=iPhone|Company=Apple
iPhone 6s|Product=iPhone|Company=Apple
iPhone 7|Product=iPhone|Company=Apple
i Phone|Product=iPhone|Company=Apple
iPhone|Product=iPhone|Company=Apple
iPhone SEm|Product=iPhone|Company=Apple
iPhones|Product=iPhone|Company=Apple
iPhoto|Product=iPhoto|Company=Apple
iPod|Product=iPod|Company=Apple
iPods|Product=iPod|Company=Apple
iTunes|Product=iTunes|Company=Apple
iTunes Store|Product=iTunes|Company=Apple
iWork|Product=iWork|Company=Apple
@JackandJonesTM|Product=Jack & Jones|Company=Bestseller
Jack & Jones|Product=Jack & Jones|Company=Bestseller
JACK & JONES|Product=Jack & Jones|Company=Bestseller
Junarose|Product=Junarose|Company=Bestseller
[JUNAROSE]|Product=Junarose|Company=Bestseller
#Kindle|Product=Kindle|Company=Amazon
Kindle|Product=Kindle|Company=Amazon
Kindle Store|Product=Kindle Store|Company=Amazon
Kinect For Kids|Product=Kinect|Company=Other
Kinect|Product=Kinect|Company=Other
Kinext|Product=Kinext|Company=Other
Knowledge Graph|Product=Knowledge|Company=Google
Kronenbourg 1664|Product=Kronenbourg 1664|Company=Carlsberg
Kukkuniiaat|Product=Lingsoft Kukkuniiaat|Company=Lingsoft
L550|Product=Lumia|Company=Microsoft
L650|Product=Lumia|Company=Microsoft
L950|Product=Lumia|Company=Microsoft
Lab126|Product=Lab126|Company=Amazon
Language Tools|Product=Google Language Tools|Company=Google
LANGUAGE WEAVER|Product=SDL Language weaver|Company=SDL
#LiveVideo API|Product=LiveVideo API|Company=Facebook
Loop|Product=Polar Loop|Company=Polar Electro
#Loop v1|Product=Polar Loop|Company=Polar Electro
LP BOYS|Product=LP Boys|Company=Bestseller
Lumia 535|Product=Lumia|Company=Microsoft
@Lumia|Product=Lumia|Company=Microsoft
Lumia|Product=Lumia|Company=Microsoft
Lync|Product=Lync|Company=Microsoft
M400|Product=Polar Fitness Watch|Company=Polar Electro
MacBook|Product=MacBook|Company=Apple
MacBook Pro|Product=MacBook|Company=Apple
MacBooks|Product=MacBook|Company=Apple
Mac Mini|Product=Mac|Company=Apple
Mac|Product=Mac|Company=Apple
Mamalicious|Product=Mamalicious|Company=Bestseller
@MBUSA|Product=Mercedes Benz USA|Company=Mercedes Benz
MC|Product=MC|Company=Microsoft
#MeeGo|Product=MeeGo|Company=Jolla Mobile
@MercedesAMGF1|Product=MercedesAMG|Company=Mercedes Benz
@MercedesAMG|Product=MercedesAMG|Company=Mercedes Benz
@MercedesBenzLov|Product=@MercedesBenzLov|Company=Mercedes Benz
@MercedesBenzME|Product=@MercedesBenzME|Company=Mercedes Benz
@MercEnthusiast|Product=@MercEnthusiast|Company=Mercedes Benz
Messenger Platform|Product=Messenger|Company=Facebook
Microsoft @Azure|Product=MS Azure|Company=Microsoft
@Microsoft #Cloud|Product=Microsoft Cloud|Company=Microsoft
microsoft glass|Product=microsoft glass|Company=Microsoft
@MicrosoftHelps|Product=MicrosoftHelps|Company=Microsoft
#MicrosoftOffice|Product=MicrosoftOffice|Company=Microsoft
@Microsoft Surface Pro 4|Product=Surface Pro|Company=Microsoft
@MicrosoftVentures|Product=MicrosoftVentures|Company=Microsoft
@Minecraft|Product=Minecraft|Company=Microsoft
#Minecraft|Product=Minecraft|Company=Microsoft
Minecraft|Product=Minecraft|Company=Microsoft
Moikrug|Product=Moikrug|Company=Yandex
@Mojang|Product=Mojang|Company=Microsoft
MotoG3|Product=MotoG|Company=Motorola
MotoG4|Product=MotoG|Company=Motorola
@MSCloud|Product=MSCloud|Company=Microsoft
@msdev|Product=msdev|Company=Microsoft
#MsDynCRM|Product=#MsDynCRM|Company=Microsoft
#MSDYNGP|Product=#MSDYNGP|Company=Microsoft
@MSFTDynamics|Product=Microsoft Dynamics|Company=Microsoft
@msftinsider|Product=Microsoft Insider|Company=Microsoft
@msPartner|Product=Microsoft Partner|Company=Microsoft
#MSP Hub|Product=IBM MSP Hub|Company=IBM
@msuspartner|Product=Microsoft Partner|Company=Microsoft
MULTITERM|Product=SDL Multiterm|Company=SDL
MyHabit.com|Product=MyHabit|Company=Amazon
Name It|Product=Name It|Company=Bestseller
.NET|Product=.NET|Company=Microsoft
Nexus 4|Product=Nexus|Company=Google
Nexus Prime|Product=Nexus|Company=Google
Nexus|Product=Nexus|Company=Google
Nexus S|Product=Nexus|Company=Google
Noisy may|Product=Noisy may|Company=Bestseller
#Nokia|Product=Nokia|Company=Microsoft
#O365|Product=Microsoft Office|Company=Microsoft
.OBJECT|Product=.OBJECT|Company=Bestseller
Office 365|Product=Microsoft Office|Company=Microsoft
Office365|Product=Microsoft Office|Company=Microsoft
Office|Product=Microsoft Office|Company=Microsoft
OmniTouch|Product=OmniTouch|Company=Microsoft
@onedrive|Product=OneDrive|Company=Microsoft
ONLY & SONS|Product=ONLY & SONS|Company=Bestseller
Open Threat Exchange|Product=Open Threat Exchange|Company=Facebook
@OracleMktgCloud|Product=OracleMktgCloud|Company=Microsoft
OS7|Product=Windows|Company=Microsoft
OSX Lion|Product=OS X|Company=Apple
OS X|Product=OS X|Company=Apple
Outfitters Nation|Product=Outfitters Nation|Company=Bestseller
Outlook|Product=Outlook|Company=Microsoft
PASSOLO|Product=SDL Passolo|Company=SDL
Penguin 2|Product=Google Penguin|Company=Google
#PKI|Product=#PKI|Company=Microsoft
Polar Balance Smart Scales|Product=Polar Balance Smart Scales|Company=Polar Electro
#PolarFlow|Product=Polar Flow|Company=Polar Electro
Polar Flow|Product=Polar Flow|Company=Polar Electro
@PolarGlobal M400 GPS #running watch|Product=Polar Fitness Watch|Company=Polar Electro
Polar Heart Rate Monitor|Product=Polar Heart Rate Monitor|Company=Polar Electro
#polarshapeupchallenge|Product=#polarshapeupchallenge|Company=Polar Electro
POLAR V800|Product=Polar Running Watch|Company=Polar Electro
#PolarV800 Run|Product=Polar Running Watch|Company=Polar Electro
Prewise Gimlet|Product=Prewise|Company=Prewise
Prime Pantry|Product=Amazon Prime|Company=Amazon
Prime|Product=Amazon Prime|Company=Amazon
#ProjectAra|Product=Project Ara|Company=Google
Project Ara|Product=Project Ara|Company=Google
#ProjectFi|Product=Project Fi|Company=Google
Project Fi|Product=Project Fi|Company=Google
#ProjectMurphy|Product=Project Murphy|Company=Microsoft
Project Soli 2.0|Product=Project Soli|Company=Google
Quantum Experience|Product=Quantum Experience|Company=IBM
QuarkXPress 7|Product=QuarkXPress|Company=Lingsoft
QuarkXPress 8|Product=QuarkXPress|Company=Lingsoft
Qunar|Product=Qunar|Company=Baidu
Redstone|Product=Redstone|Company=Microsoft
#RemoteDesktop|Product=#RemoteDesktop|Company=Microsoft
Roslyn|Product=Roslyn|Company=Microsoft
Royal|Product=Royal|Company=Royal Unibrew
S400L Hybrid|Product=S400L Hybrid|Company=Mercedes Benz
#SailfishOS|Product=SailfishOS|Company=Jolla Mobile
Sap HANA|Product=SAP HANA|Company=Microsoft
@SAP HANA|Product=SAP HANA|Company=Microsoft
@SAP|Product=SAP|Company=Microsoft
#SCCM|Product=#SCCM|Company=Microsoft
#ScienceJournal|Product=Google ScienceJournal|Company=Google
Science Journal|Product=Google ScienceJournal|Company=Google
#SculptComfortDesktop|Product=#SculptComfortDesktop|Company=Microsoft
SDL AUTOSUGGEST|Product=SDL Autosuggest|Company=SDL
SDL DESKTOP TRANSLATOR|Product=SDL Desktop Translator|Company=SDL
SDL GLOBALCONNECT|Product=SDL Global Connect|Company=SDL
SDL GROUPSHARE|Product=SDL Groupshare|Company=SDL
SDL INTERNATIONAL E-NABLING GLOBAL BUSINESS|Product=SDL International|Company=SDL
SDL INTERNATIONAL|Product=SDL International|Company=SDL
SDL KBT SYSTEM|Product=SDL KBT SYSTEM|Company=SDL
SDL KNOWLEDGE-BASED TRANSLATION SYSTEM|Product=SDL Knowledge-Based Translation System|Company=SDL
SDL LiveContent|Product=SDL LiveContent|Company=SDL
SDL PERFECTMATCH|Product=SDL PerfectMatch|Company=SDL
SDL PHRASEFINDER|Product=SDL PhraseFinder|Company=SDL
SDL Termbase|Product=SDL Termbase|Company=SDL
SDL TM SERVER|Product=SDL TM Server|Company=SDL
SDL Translate|Product=SDL Translate|Company=SDL
SDL TRANSLATION MANAGEMENT SYSTEM|Product=SDL Translation Management System|Company=SDL
SDL TRIDION SITEEDIT|Product=SDL Tridion|Company=SDL
SDL TRIDION WEBFORMS|Product=SDL Tridion|Company=SDL
SDL TRUSTSCORE|Product=SDL Trustcore|Company=SDL
SDL WORLDSERVER|Product=SDL WorldServer|Company=SDL
SDL YOUR CONTENT|Product=SDL Your Content|Company=SDL
SE 5/20|Product=Apple SE|Company=Apple
Selected Femme|Product=Selected Femme|Company=Bestseller
Selected Homme|Product=Selected Femme|Company=Bestseller
SharePoint 2010|Product=SharePoint|Company=Microsoft
SharePoint|Product=SharePoint|Company=Microsoft
Shopbop|Product=Amazon Shopbop|Company=Amazon
Silverlight|Product=Silverlight|Company=Microsoft
Siri|Product=Siri|Company=Apple
Skype|Product=Skype|Company=Microsoft
'Smart' Jean Jacket For Urban Cyclists|Product=Project Jaquard|Company=Google
SMARTTARGET|Product=SDL SmartTarget|Company=SDL
Somersby|Product=Somersby|Company=Carlsberg
Spaces|Product=Google Spaces|Company=Google
SpeedPage|Product=Google SpeedPage|Company=Google
SQL Server 2005|Product=SQLServer|Company=Microsoft
@SQLServer 2016|Product=SQLServer|Company=Microsoft
@SQLServer|Product=SQLServer|Company=Microsoft
#SQLServer|Product=SQLServer|Company=Microsoft
ST7000|Product=Tetra|Company=Motorola
Studios|Product=Amazon Studios|Company=Amazon
#SurfaceBook|Product=Surface|Company=Microsoft
Surface Hub|Product=Surface Hub|Company=Microsoft
#SurfacePhone|Product=Surface Phone|Company=Microsoft
Surface Phone|Product=Surface Phone|Company=Microsoft
Surface Pro 4|Product=Surface Pro|Company=Microsoft
Surface Pro 5|Product=Surface Pro|Company=Microsoft
Surface|Product=Surface|Company=Microsoft
Svefix 2.2|Product=Lingsoft Svefix|Company=Lingsoft
Svefix|Product=Lingsoft Svefix|Company=Lingsoft
Teaminology|Product=Teaminology|Company=Welocalize
#TeamPolar|Product=#TeamPolar|Company=Polar Electro
TEAMWORKS|Product=SDL Teamworks|Company=SDL
Tekla BIMsight|Product=Tekla BIMsight|Company=Tekla
Tekla Structures|Product=Tekla Structures|Company=Tekla
Tetra|Product=Tetra|Company=Motorola
#TETRA|Product=Tetra|Company=Motorola
TETRA|Product=Tetra|Company=Motorola
@TETRAToday|Product=Tetra|Company=Motorola
#thebookdepository|Product=The Book Depository|Company=Amazon
TheBookDepository|Product=The Book Depository|Company=Amazon
THEIR LANGUAGE|Product=SDL TheirLanguage|Company=SDL
ToonsTV|Product=ToonsTV|Company=Rovio Entertainment
TRADOS|Product=TRADOS|Company=SDL
TRADOS STUDIO|Product=TRADOS|Company=SDL
TRANSLATION ZONE|Product=SDL Translate|Company=SDL
TRANSLATOR'S WORKBENCH|Product=SDL Translator's workbench|Company=SDL
TRIDION|Product=SDL Tridion|Company=SDL
TRUSTSCORE BY SDL|Product=Trustcore By SDL|Company=SDL
TRUSTSCORE FOR BEGLOBAL|Product=Trustcore For Beglobal|Company=SDL
TRUSTSCORE FOR GLOBALCONNECT|Product=Trustcore For Globalconnect|Company=SDL
Tuborg Classic|Product=Tuborg|Company=Carlsberg
Tuborg Gold|Product=Tuborg|Company=Carlsberg
Tuborg Guld/Gold|Product=Tuborg|Company=Carlsberg
Tuborg|Product=Tuborg|Company=Carlsberg
Twitch.tv|Product=Twitch.tv|Company=Amazon
@unity3d|Product=unity3d|Company=Microsoft
Universal Foldable Keyboard|Product=Universal Foldable Keyboard|Company=Microsoft
V800|Product=Polar Running Watch|Company=Polar Electro
V90|Product=Volvo|Company=Volvo
@Verge|Product=Verge|Company=Microsoft
Vero Moda|Product=Vero Moda|Company=Bestseller
@VEROMODA|Product=Vero Moda|Company=Bestseller
Vijeo Citect|Product=Vijeo|Company=Citec
Vijeo Historian|Product=Vijeo|Company=Citec
Vila|Product=Vila|Company=Bestseller
Vista|Product=Windows Vista|Company=Microsoft
Visual Studio|Product=Visual Studio|Company=Microsoft
Voice Local Search|Product=Google Voice Local Search|Company=Google
#VOIP|Product=#VOIP|Company=Microsoft
Volvo Buses|Product=Volvo Buses|Company=Volvo
Volvo Construction Equipment|Product=Volvo Construction Equipment|Company=Volvo
Volvo Penta|Product=Volvo Penta|Company=Volvo
Volvo Trucks|Product=Volvo Trucks|Company=Volvo
watchOS|Product=watchOS|Company=Apple
#WatsonAnalytics|Product=IBM Watson|Company=IBM
#Watson|Product=IBM Watson|Company=IBM
Watson|Product=IBM Watson|Company=IBM
Web History|Product=Google Web History|Company=Google
Weimpact|Product=Weimpact|Company=Welocalize
weMT|Product=weMT|Company=Welocalize
Wenku|Product=Wenku|Company=Baidu
Wiin10|Product=Windows|Company=Microsoft
Win 10|Product=Windows|Company=Microsoft
Win10|Product=Windows|Company=Microsoft
Win 7|Product=Windows|Company=Microsoft
Win7|Product=Windows|Company=Microsoft
Win 7v2|Product=Windows|Company=Microsoft
Win 8.1|Product=Windows|Company=Microsoft
Win 8|Product=Windows|Company=Microsoft
Win8|Product=Windows|Company=Microsoft
WINALIGN|Product=SDL Winalign|Company=SDL
Windows 10 Mobile Beta|Product=Windows Phone|Company=Microsoft
Windows 10 Phone|Product=Windows Phone|Company=Microsoft
Windows 10 Phones|Product=Windows Phone|Company=Microsoft
@Windows 10|Product=Windows|Company=Microsoft
#Windows10|Product=Windows|Company=Microsoft
Windows 10|Product=Windows|Company=Microsoft
Windows 11|Product=Windows|Company=Microsoft
Windows 3.0|Product=Windows|Company=Microsoft
Windows3.0|Product=Windows|Company=Microsoft
Windows 3.1|Product=Windows|Company=Microsoft
Windows3.1|Product=Windows|Company=Microsoft
@Windows 7|Product=Windows|Company=Microsoft
Windows 7|Product=Windows|Company=Microsoft
Windows 8|Product=Windows|Company=Microsoft
@windowsblog|Product=windowsblog|Company=Microsoft
Windows C|Product=Windows|Company=Microsoft
@windowsdev|Product=windowsdev|Company=Microsoft
@windowsinsider|Product=windowsinsider|Company=Microsoft
#Windowsmobile build 14352|Product=#Windowsmobile build 14352|Company=Microsoft
#Windowsmobile|Product=#Windowsmobile|Company=Microsoft
#WindowsPhone10|Product=Windows Phone|Company=Microsoft
WindowsPhone|Product=Windows Phone|Company=Microsoft
Windows|Product=Windows|Company=Microsoft
Windows Server 2008 R2 Enterprise|Product=Windows Enterprise|Company=Microsoft
@windowsstore|Product=windowsstore|Company=Microsoft
Windows Vista|Product=Windows|Company=Microsoft
Windows XP|Product=Windows|Company=Microsoft
WindowsXP|Product=Windows|Company=Microsoft
Win Phone 20|Product=Windows Phone|Company=Microsoft
Win Phones|Product=Windows Phone|Company=Microsoft
WinRT|Product=WinRT|Company=Microsoft
Win Vista|Product=Windows|Company=Microsoft
Win XP|Product=Windows|Company=Microsoft
Woot|Product=Woot|Company=Amazon
#wordflow|Product=#wordflow|Company=Microsoft
WP7|Product=Windows|Company=Microsoft
Xbox360|Product=Xbox|Company=Microsoft
@Xbox One|Product=Xbox|Company=Microsoft
#XboxOne|Product=Xbox|Company=Microsoft
Xbox One|Product=Xbox|Company=Microsoft
@XboxOne VR headset|Product=Xbox|Company=Microsoft
@XboxP3|Product=Xbox|Company=Microsoft
Xbox|Product=Xbox|Company=Microsoft
@xboxstore|Product=Xbox|Company=Microsoft
Xbox TV|Product=Xbox|Company=Microsoft
@xboxuk|Product=Xbox|Company=Microsoft
XYENTERPRISE|Product=SDL XYEnterprise|Company=SDL
Yandex Browser|Product=Yandex Browser|Company=Yandex
Yandex Catalog|Product=Yandex Catalog|Company=Yandex
Yandex Direct|Product=Yandex Direct|Company=Yandex
Yandex Fotki|Product=Yandex Fotki|Company=Yandex
Yandex Mail|Product=Yandex Mail|Company=Yandex
Yandex Maps|Product=Yandex Maps|Company=Yandex
Yandex Money|Product=Yandex Money|Company=Yandex
Yandex Music|Product=Yandex Music|Company=Yandex
Yandex News|Product=Yandex News|Company=Yandex
Yandex Search|Product=Yandex Search|Company=Yandex
Yandex Taxi|Product=Yandex Taxi|Company=Yandex
Yandex.Translate|Product=Yandex.Translate|Company=Yandex
Yandex Video|Product=Yandex Video|Company=Yandex
Ya.ru|Product=Ya.ru|Company=Yandex
Y.A.S|Product=Y.A.S|Company=Bestseller
@YouTube|Product=YouTube|Company=Google
Zagat|Product=Zagat|Company=Google
